{
    "component": "BNL-PPB2-MLS-216",
    "properties": {
        "scan_info": {
            "AMAC_ILIMIT": 100,
            "PS_ILIMIT": 155,
            "SET_VOLTAGE": [0, 0, 0, 0, 0, 0, 0, 0, 0, 0, 0, 0, 0, 0, 0, 0, 0, 0, 0, 0, 0, 0, 0, 0, 0, 0, 0, 0, 0, 0, 0, 0, 0, 0, 0, 0, 0, 0, 0, 0, 0, 0, 0, 0, 0, 0, 0, 0, 0, 0, 0, 0, 0, 0, 0, 0, 0, 0, 0]
        },
        "sensor_type": "BARREL_LS_MODULE"
    },
    "results": {
        "CURRENT": [0.0, -320.53, -320.85, -322.32, -320.85, -323.01, -322.49, -323.64, -324.17, -324.21, -323.09, -325.69, -326.56, -326.06, -325.96, -327.92, -323.88, -326.91, -326.69, -328.92, -328.35, -327.87, -328.5, -321.28, -328.2, -328.52, -327.39, -318.07, -318.48, -322.19, -320.16, -317.84, -318.76, -317.42, -321.47, -321.28, -321.73, -318.31, -317.63, -322.91, -321.11, -317.91, -315.49, -316.88, -327.31, -327.49, -322.43, -326.1, -326.58, -328.46, -327.89, -330.03, -332.1, -330.91, -318.44, -325.67, -318.41, -316.7, -316.64],
        "CURRENT_RMS": [0, 0, 0, 0, 0, 0, 0, 0, 0, 0, 0, 0, 0, 0, 0, 0, 0, 0, 0, 0, 0, 0, 0, 0, 0, 0, 0, 0, 0, 0, 0, 0, 0, 0, 0, 0, 0, 0, 0, 0, 0, 0, 0, 0, 0, 0, 0, 0, 0, 0, 0, 0, 0, 0, 0, 0, 0, 0, 0],
        "HUMIDITY": 0.0,
        "I_500V": 0.0,
        "PS_CURRENT": [0, 0, 0, 0, 0, 0, 0, 0, 0, 0, 0, 0, 0, 0, 0, 0, 0, 0, 0, 0, 0, 0, 0, 0, 0, 0, 0, 0, 0, 0, 0, 0, 0, 0, 0, 0, 0, 0, 0, 0, 0, 0, 0, 0, 0, 0, 0, 0, 0, 0, 0, 0, 0, 0, 0, 0, 0, 0, 0]
        ,
        "TEMPERATURE": "bypass_AMAC_-35.0",
        "VBD": 124.76174926757813,
        "VOLTAGE": [0.0, -9.79, -19.79, -29.78, -39.79, -49.79, -59.78, -69.77, -79.79, -89.78, -99.77, -109.78, -119.78, -129.77, -139.78, -149.77, -159.78, -169.78, -179.78, -189.77, -199.77, -209.76, -219.76, -229.77, -239.77, -249.77, -259.75, -269.77, -279.76, -289.76, -299.75, -309.77, -319.77, -329.76, -339.75, -349.76, -359.75, -369.75, -379.75, -389.76, -399.76, -409.75, -419.75, -429.74, -439.75, -449.74, -459.74, -469.75, -479.74, -489.74, -499.73, -509.74, -519.74, -529.73, -539.75, -549.75, -550.0, -550.0, -550.0]
    },
    "runNumber": "42-1",
    "testType": "MODULE_IV_AMAC"
}
