{
    "component": "BNL-PPB2-MLS-220",
    "properties": {
        "scan_info": {
            "AMAC_ILIMIT": 100,
            "PS_ILIMIT": 155,
            "SET_VOLTAGE": [0, 0, 0, 0, 0, 0, 0, 0, 0, 0, 0, 0, 0, 0, 0, 0, 0, 0, 0, 0, 0, 0, 0, 0, 0, 0, 0, 0, 0, 0, 0, 0, 0, 0, 0, 0, 0, 0, 0, 0, 0, 0, 0, 0, 0, 0, 0, 0, 0, 0, 0, 0, 0, 0, 0, 0, 0, 0, 0]
        },
        "sensor_type": "BARREL_LS_MODULE"
    },
    "results": {
        "CURRENT": [0.0, -0.26, -0.29, -0.25, -1.12, -0.77, -1.16, -1.47, -1.84, -1.68, -2.01, -2.22, -2.37, -2.4, -2.5, -2.66, -2.59, -2.69, -3.14, -2.74, -2.77, -2.71, -2.68, -2.92, -3.2, -3.43, -2.86, -2.93, -2.51, -2.89, -2.59, -2.73, -2.77, -2.77, -2.74, -2.59, -2.52, -2.39, -2.29, -2.66, -2.95, -2.78, -2.53, -2.75, -2.71, -2.38, -2.7, -2.51, -3.09, -2.79, -3.01, -2.88, -2.87, -2.95, -3.41, -3.34, -3.63, -2.77, -2.82],
        "CURRENT_RMS": [0, 0, 0, 0, 0, 0, 0, 0, 0, 0, 0, 0, 0, 0, 0, 0, 0, 0, 0, 0, 0, 0, 0, 0, 0, 0, 0, 0, 0, 0, 0, 0, 0, 0, 0, 0, 0, 0, 0, 0, 0, 0, 0, 0, 0, 0, 0, 0, 0, 0, 0, 0, 0, 0, 0, 0, 0, 0, 0],
        "HUMIDITY": 0.0,
        "I_500V": 0.0,
        "PS_CURRENT": [0, 0, 0, 0, 0, 0, 0, 0, 0, 0, 0, 0, 0, 0, 0, 0, 0, 0, 0, 0, 0, 0, 0, 0, 0, 0, 0, 0, 0, 0, 0, 0, 0, 0, 0, 0, 0, 0, 0, 0, 0, 0, 0, 0, 0, 0, 0, 0, 0, 0, 0, 0, 0, 0, 0, 0, 0, 0, 0]
        ,
        "TEMPERATURE": "bypass_AMAC_-35.0",
        "VBD": 124.76174926757813,
        "VOLTAGE": [0.0, -9.83, -19.82, -29.82, -39.83, -49.83, -59.82, -69.81, -79.83, -89.82, -99.82, -109.83, -119.82, -129.82, -139.82, -149.83, -159.82, -169.82, -179.82, -189.82, -199.81, -209.81, -219.8, -229.81, -239.82, -249.81, -259.8, -269.81, -279.81, -289.8, -299.8, -309.82, -319.81, -329.8, -339.81, -349.8, -359.8, -369.79, -379.8, -389.8, -399.8, -409.8, -419.8, -429.79, -439.79, -449.78, -459.8, -469.8, -479.79, -489.78, -499.79, -509.78, -519.78, -529.76, -539.78, -549.78, -550.0, -550.0, -550.0]
    },
    "runNumber": "42-1",
    "testType": "MODULE_IV_AMAC"
}
