{
    "component": "BNL-PPB2-MLS-219",
    "properties": {
        "scan_info": {
            "AMAC_ILIMIT": 100,
            "PS_ILIMIT": 155,
            "SET_VOLTAGE": [0, 0, 0, 0, 0, 0, 0, 0, 0, 0, 0, 0, 0, 0, 0, 0, 0, 0, 0, 0, 0, 0, 0, 0, 0, 0, 0, 0, 0, 0, 0, 0, 0, 0, 0, 0, 0, 0, 0, 0, 0, 0, 0, 0, 0, 0, 0, 0, 0, 0, 0, 0, 0, 0, 0, 0, 0, 0, 0]
        },
        "sensor_type": "BARREL_LS_MODULE"
    },
    "results": {
        "CURRENT": [0.0, -53.78, -54.22, -55.41, -54.99, -55.11, -55.59, -56.29, -56.87, -57.1, -57.49, -57.96, -58.17, -56.71, -57.8, -57.79, -58.48, -58.28, -58.85, -58.58, -58.1, -57.11, -58.48, -59.16, -58.3, -58.55, -57.64, -58.15, -60.0, -57.96, -57.84, -58.7, -56.32, -57.36, -59.29, -57.79, -59.59, -57.29, -57.94, -58.41, -59.21, -59.36, -58.33, -60.03, -58.83, -59.3, -58.16, -58.94, -59.58, -60.03, -61.02, -56.01, -56.05, -57.9, -54.53, -56.61, -55.59, -57.39, -56.22],
        "CURRENT_RMS": [0, 0, 0, 0, 0, 0, 0, 0, 0, 0, 0, 0, 0, 0, 0, 0, 0, 0, 0, 0, 0, 0, 0, 0, 0, 0, 0, 0, 0, 0, 0, 0, 0, 0, 0, 0, 0, 0, 0, 0, 0, 0, 0, 0, 0, 0, 0, 0, 0, 0, 0, 0, 0, 0, 0, 0, 0, 0, 0],
        "HUMIDITY": 0.0,
        "I_500V": 0.0,
        "PS_CURRENT": [0, 0, 0, 0, 0, 0, 0, 0, 0, 0, 0, 0, 0, 0, 0, 0, 0, 0, 0, 0, 0, 0, 0, 0, 0, 0, 0, 0, 0, 0, 0, 0, 0, 0, 0, 0, 0, 0, 0, 0, 0, 0, 0, 0, 0, 0, 0, 0, 0, 0, 0, 0, 0, 0, 0, 0, 0, 0, 0]
        ,
        "TEMPERATURE": "bypass_AMAC_-35.0",
        "VBD": 124.76174926757813,
        "VOLTAGE": [0.0, -9.84, -19.83, -29.84, -39.84, -49.83, -59.83, -69.84, -79.83, -89.83, -99.82, -109.83, -119.82, -129.82, -139.82, -149.83, -159.82, -169.82, -179.82, -189.82, -199.81, -209.8, -219.81, -229.81, -239.81, -249.8, -259.8, -269.8, -279.8, -289.8, -299.8, -309.81, -319.8, -329.79, -339.8, -349.79, -359.78, -369.79, -379.79, -389.78, -399.79, -409.78, -419.78, -429.78, -439.78, -449.79, -459.78, -469.78, -479.77, -489.77, -499.77, -509.77, -519.76, -529.77, -539.78, -549.77, -550.0, -550.0, -550.0]
    },
    "runNumber": "42-1",
    "testType": "MODULE_IV_AMAC"
}
